<?xml version="1.0" encoding="UTF-8"?>
<svg width="81px" height="75px" viewBox="0 0 81 75" version="1.1" xmlns="http://www.w3.org/2000/svg" xmlns:xlink="http://www.w3.org/1999/xlink">
    <!-- Generator: Sketch 44.1 (41455) - http://www.bohemiancoding.com/sketch -->
    <title>ico-about-earth@3x</title>
    <desc>Created with Sketch.</desc>
    <defs></defs>
    <g id="Desktop" stroke="none" stroke-width="1" fill="none" fill-rule="evenodd">
        <g id="11-HealthSparq-Life-&amp;-Careers" transform="translate(-288.000000, -1337.000000)" fill-rule="nonzero" fill="#FFFFFF">
            <g id="ico-about-earth" transform="translate(288.000000, 1337.000000)">
                <path d="M23.6528231,68.4406189 C23.1221368,68.6380088 22.5881699,68.8192202 22.0575001,68.981014 C19.7987984,69.6767333 17.4527839,70.0844361 15.4659614,69.728508 C13.3788202,69.3563764 11.6993323,68.1299542 11.0424979,65.7386264 C10.8904129,65.1885225 11.2140005,64.6157371 11.7673435,64.4668745 C12.3174475,64.3147895 12.8870021,64.6383771 13.0390955,65.1884811 C13.4597627,66.7223372 14.437012,67.443952 15.8316977,67.6898197 C17.3267021,67.9584019 19.2941402,67.6639323 21.445979,67.0005702 C25.7271241,65.6835879 30.2219952,63.0753863 31.979021,61.8069479 C32.4449931,61.4736515 33.0922181,61.5772009 33.4254814,62.039934 C33.7587779,62.5059062 33.6552285,63.1531312 33.1924953,63.4863945 C31.8592765,64.4474983 29.1476084,66.0783595 26.0832097,67.4471165 C32.5032707,70.9354049 40.0979958,72.4239478 45.6084791,72.3592501 C45.9029487,72.3560136 46.203888,72.3463056 46.5015717,72.3365985 C45.0551113,70.4694791 43.9192989,68.2302447 43.5504147,66.8355589 C42.7220197,63.7420007 42.0651025,61.2406621 41.3467184,58.1506661 L41.0587186,56.8919199 L40.9228121,56.6686426 C40.4018262,55.8920223 38.9035994,53.9989741 38.5864898,53.7110241 C38.1205176,53.3259529 36.8455349,52.9894175 36.1433873,50.8763393 C35.5771048,48.9768296 36.1272071,47.4753638 36.1272071,46.3784032 C36.1272071,45.6859147 35.9783528,44.8477778 33.6161763,43.6828888 C33.3767204,43.5663999 33.19227,43.3593011 33.0984294,43.1068975 C32.8007291,42.2849723 32.8783912,41.3854099 32.9560532,40.7511079 C32.9722326,40.6022536 32.9981199,40.4275119 33.0207707,40.2495396 C31.81703,39.9162431 30.9271681,38.6769145 30.3641081,38.3209532 C29.807526,37.9650002 28.6879337,37.5410939 27.4291047,37.0427398 C26.4518471,36.6576687 24.9471505,36.068713 24.329085,35.4312631 C23.9148876,34.9879392 23.164196,34.088352 22.2548669,33.3117317 C21.5041339,32.6710179 20.8958021,32.3377049 20.4686816,32.2503921 L20.3845499,32.2471555 C20.2615829,32.3765922 20.1289155,32.4801416 19.9671133,32.5739822 C19.8182591,32.658114 19.6467564,32.7293063 19.4784929,32.7972595 L19.3975951,32.8296191 C18.8313126,33.02377 18.2811672,32.9558168 17.8087336,32.6807648 C16.1648666,31.7229745 15.5759606,28.1149003 15.2846969,25.8141161 C14.9384527,23.07975 14.8510819,20.1350544 15.0484718,19.2581155 L15.0937751,19.0995524 C15.1034822,19.0671928 15.1164259,19.0315983 15.1293696,18.999242 C15.7150697,17.5819411 16.8087747,16.2066398 17.2974449,15.2003055 C17.4657085,14.8475915 17.5854447,14.5175258 17.5530793,14.2004328 C9.12995926,24.3126502 8.82925189,31.3051321 9.59270069,43.1428962 C9.80303845,46.3593882 11.4695123,50.6858466 13.6958238,54.6791245 C13.9741148,55.1774538 13.7929034,55.8117061 13.2945658,56.0867332 C12.7962366,56.3650242 12.165215,56.1870436 11.8869571,55.6887143 C10.8353097,53.8022105 9.87743661,51.7991514 9.12674509,49.8252519 C6.48623613,51.6309044 4.09813911,53.5530292 2.69053039,56.3230163 C2.674351,56.3618482 2.64846366,56.4006784 2.62581203,56.4362745 C2.31516392,56.8957769 2.36369958,57.3261364 2.71642187,57.7888778 C3.10473201,58.3033856 3.79399804,58.7078992 4.41852501,58.8082178 C8.57342281,59.4780497 13.5532363,58.1998694 18.5658543,56.1483244 C23.5556085,54.1064965 28.3931038,51.3818226 32.2633651,49.3108352 C32.7649334,49.0390222 33.3927159,49.2299366 33.6645123,49.7347415 C33.9330945,50.2363098 33.7421743,50.8673231 33.240606,51.1358887 C28.9076862,53.4528266 22.7498122,56.9670437 16.5078561,59.1318055 C17.4656463,60.4553321 18.4202887,61.6072981 19.3133813,62.5036215 C19.8634853,63.0569645 20.4427322,63.5844284 21.0445611,64.0892523 C21.4846459,64.4581449 21.5396597,65.111823 21.1739978,65.5486357 C20.808336,65.9854815 20.1546578,66.0437342 19.7146144,65.6780724 C19.0674309,65.1344382 18.4396317,64.5648753 17.8442643,63.9630463 C16.7310671,62.8466184 15.5694088,61.409933 14.4368272,59.7952256 C10.8417588,60.8533345 7.27899768,61.3678506 4.09183089,60.8533345 C2.94955707,60.6721231 1.78458522,59.9893185 1.06628395,59.0379897 C0.396452059,58.1578201 0.0857956626,56.9605408 0.62619912,55.7794153 L0.846237391,55.3878661 C2.59365374,51.9481217 5.58366253,49.7120352 8.42795665,47.7996025 C7.93933617,46.2075102 7.61574024,44.673737 7.52840256,43.2790512 C6.74531251,31.1803427 7.0527216,23.5499966 16.0128238,12.8189682 C16.2846451,12.4921416 16.556458,12.1750237 16.8282793,11.8676395 C16.812099,11.5408128 16.9480072,11.2172169 17.2230592,11.0003928 C17.4042706,10.8580082 17.6178391,10.7868243 17.8314159,10.7803545 C23.5913289,4.76156801 29.2152195,2.98830575 35.7943323,1.54789258 C42.8032993,0.0140364557 53.3008032,1.82618358 57.1031361,3.42470422 C64.820795,6.67358644 71.4931851,11.8991847 75.48025,18.8825543 C79.6578459,26.2054001 82.0232449,42.7767788 78.9556155,51.4426185 C74.8362558,63.0724555 64.0577604,70.9811422 52.9423567,73.5375691 C52.7967414,73.6119954 52.6317086,73.657297 52.460206,73.6540663 L52.4149035,73.6540663 C50.1432788,74.139456 47.8651927,74.4047992 45.6324197,74.4306866 C39.400073,74.505112 30.7113696,72.7124297 23.6542728,68.4409767 L23.6528231,68.4406189 Z M51.4173089,71.7477373 C51.397893,70.6766226 51.349354,69.5958157 51.3622985,69.3110963 L51.3720056,69.2172557 L51.3784779,69.1622445 C51.4108366,68.9227887 51.5273322,68.6995114 51.7053045,68.5377093 C52.4883946,67.8161027 53.7115943,66.4441066 54.1193303,65.8001124 L54.2293494,65.5930137 L54.2908321,64.6449156 C54.2875964,63.5770317 54.1646344,62.2729723 54.6953208,61.1274677 C54.7470955,61.0142096 54.8215185,60.9138992 54.9088893,60.8265284 L55.3198478,60.4220397 L55.6822706,59.9495978 C56.517127,58.8137855 56.7695389,58.1180994 56.924863,57.4126382 C57.0931266,56.6392569 57.199915,55.3060298 57.7241316,53.5327675 C57.7920857,53.3062512 57.9247606,53.1379876 57.9603567,53.0926827 C58.1480379,52.8499878 58.5460568,52.4746255 58.9116855,52.1510461 L59.2190946,51.8824639 L59.1964438,51.6980135 L59.0831856,51.6494754 C58.8955045,51.575049 58.633392,51.4844425 58.277439,51.3776541 C57.6237856,51.1835032 56.8439015,50.989344 56.0025835,50.7693057 C54.5755075,50.3907044 52.4851357,49.8276692 51.5791201,48.9636532 C50.2265168,47.6660553 49.7508524,46.0578093 48.8642213,45.0190849 L48.4791502,44.6307747 L48.3367656,44.5563493 C47.8254885,44.3007148 46.437256,43.7311933 44.9196364,43.1487405 C43.8582968,42.7442518 42.8454182,42.3721202 42.1723473,42.1326313 L42.0170233,42.0776209 L41.748441,42.3688514 C41.1368536,42.9513207 40.22436,43.4108066 39.0303115,43.0678096 C38.9623574,43.0483946 38.9008748,43.0225072 38.8393913,42.9933842 C38.2925181,42.7118624 37.8362878,42.3429616 37.415546,41.9578904 L36.4577558,41.0712593 L36.3574454,41.074495 C35.9594265,41.0389006 35.6293608,40.919171 35.3575727,40.7638469 L35.0792817,40.566457 L35.0436864,40.8609265 C34.978968,41.2913026 34.9271975,41.7054752 34.9692601,42.0646672 L35.4902459,42.346189 C37.5288431,43.5661663 38.1986833,44.8539891 38.1986833,46.378153 C38.1986833,47.8925418 37.7100628,48.8762608 38.1210213,50.2547929 C38.5611061,51.5783195 38.7908531,51.1964295 39.923443,52.1251431 L39.9687455,52.1672106 C40.5091406,52.6590701 42.5704027,55.257538 42.939287,56.0114603 C42.96841,56.0697072 43.0234188,56.1862019 43.0557759,56.3285782 C43.8938631,60.0402018 44.6090164,62.7744851 45.550653,66.3016252 C45.9098368,67.6574592 47.3466133,70.3594351 49.0487164,72.1262359 C49.8382762,72.0291563 50.6278029,71.9029586 51.417429,71.7476345 L51.4173089,71.7477373 Z M77.0039442,50.7528952 C77.6317102,48.9764022 78.0102785,46.8115576 78.1786083,44.4396143 C77.9909271,44.2745815 77.8647212,44.0448344 77.8356031,43.7762522 C77.7870641,43.3199888 77.3599221,42.8151484 76.1691209,41.8767425 C75.3989704,41.2748639 73.8910348,40.1973374 73.4476778,38.8284976 C73.2891147,38.3431078 73.2955928,37.8415478 73.3279499,37.4305811 C73.3603095,37.0293231 73.4347383,36.5697959 73.4832739,36.2203789 C73.5965321,35.3758302 73.5771145,34.9389347 73.3991421,34.6445231 C73.1014335,34.1526636 72.4671978,33.5993372 71.6031818,32.8583379 C70.8233225,32.188506 69.8589962,31.3601027 69.2668595,30.408774 C67.0081578,26.7651615 71.4834788,21.8108626 73.7162517,19.9759677 C73.7033089,19.9533169 73.6936009,19.9306653 73.6806572,19.9080137 C69.9690336,13.4037877 63.6976695,8.4463409 56.3009308,5.33323261 C53.4792519,4.14887633 46.3212566,2.78335006 40.2342104,3.07776163 C40.2277382,3.09717673 40.2180302,3.11659265 40.2083231,3.13600857 C39.7617685,4.13265056 37.904391,6.61783546 37.2765505,7.54008758 C36.8429354,8.17432333 37.1212264,9.59815203 38.23111,10.5041676 C39.0239088,11.1545902 40.1338504,11.4069524 41.1854978,9.49451982 C41.4314317,9.04472621 42.3989307,6.92516999 42.5381011,6.49158807 C42.6384114,6.16800042 42.8746365,5.67613263 43.0979138,5.38170449 C43.1043861,5.37199653 43.1658679,5.28462488 43.2694165,5.18754528 L43.6480178,4.9448504 C43.7062639,4.90601939 43.6771409,4.91572735 43.8939434,4.75716924 C43.9813142,4.69245088 44.4019815,4.37532886 44.5799621,4.2620707 C47.6314378,2.35286882 51.9869729,7.35562887 51.9805114,10.1450004 C51.97404,13.5879756 50.1587052,14.5555409 48.2268881,14.853266 C47.408202,14.9827028 45.9294175,14.9406369 45.3178135,15.40337 L45.2628031,15.4648526 L45.2757468,15.5360433 C45.330758,15.6298838 45.4407797,15.7366722 45.6478784,15.9017051 C45.9649963,16.1541087 46.8872401,16.7333308 47.1817345,17.7364343 C47.2173298,17.8561622 47.2432172,17.9791291 47.2593966,18.1053268 C47.3241157,18.6522 47.1590862,19.1440513 46.8387293,19.5356336 C46.3792269,20.0954463 45.6414501,20.383413 45.042769,20.5678965 C44.3955854,20.7685255 43.6286988,20.9238496 42.9103147,21.0759346 C41.7421121,21.3250992 40.7163935,21.5677941 39.9753113,21.923714 L39.3475453,22.3087851 L39.0983807,22.674447 C38.7812628,23.2213202 38.2796945,24.2633085 37.6875412,25.5738293 C36.9691654,27.1594601 36.1601466,29.0006508 35.5356196,30.0232215 C35.464429,30.1364797 35.3738258,30.2367901 35.2670374,30.3144521 C34.9563893,30.5441991 34.6263236,30.586265 34.4451122,30.5959738 C34.2994969,30.6056818 34.0503323,30.5927381 33.9273653,30.5862659 L33.8594113,30.5895016 C33.5034582,30.6250969 33.1539833,30.4730127 32.9371592,30.1882519 C32.5359012,29.6640353 32.1443603,29.0233629 31.8531215,28.6835553 L31.6330832,28.4861653 L31.4777592,28.53794 C31.212416,28.6835553 30.7723312,29.088044 30.3451776,29.9455488 C29.7983044,31.0425094 29.7659472,31.9291405 29.8597878,32.1168548 C30.4098918,33.1781944 34.513048,34.5567265 35.3025913,37.310477 C35.3705453,37.5467022 35.4093797,37.7699795 35.4223192,37.9900177 C35.5970608,38.0741495 35.7556156,38.1938774 35.8915304,38.336262 C36.1698214,38.6274925 36.2118873,38.7957644 36.3963377,38.9607972 C36.4125171,38.9737409 36.4481124,39.0384592 36.7069858,38.9996282 C37.0014554,38.9575615 37.2991557,39.0416958 37.525672,39.2326143 C38.2278693,39.8312622 38.7229513,40.3910418 39.2471596,40.7987778 L39.6807747,41.0802996 L39.8975822,41.0932433 C40.1920518,41.0447043 40.4735735,40.7987737 40.687142,40.3878152 C40.8974798,39.9736178 41.3537431,39.7535712 41.8068006,39.840942 L41.8585753,39.85065 L41.9232937,39.8668294 C42.3051341,39.9671397 44.0168963,40.5852052 45.6607633,41.2162019 C47.2172346,41.8116108 49.0811232,42.5494208 49.6312603,42.9086128 L49.6700914,42.9345002 L49.7283375,42.9765677 L49.7833487,43.0218702 C51.2362706,44.2320724 51.880182,46.3775325 53.0127636,47.4680316 C53.3848952,47.8239847 54.5692349,48.247891 56.5302115,48.7656295 C57.3262494,48.9759673 58.1708477,49.1862968 58.8665338,49.3933955 C59.5072476,49.5843157 60.2385216,49.8270106 60.6851093,50.1700158 C60.7757191,50.2379699 60.8695597,50.3221008 60.9601613,50.4256502 C61.092837,50.5842133 61.1737298,50.7751335 61.1996171,50.9757542 C61.2481553,51.3802429 61.2934577,51.7879706 61.3419934,52.1891871 C61.3840609,52.5516099 61.2319742,52.9075629 60.9407437,53.1340544 C60.8274855,53.2246643 60.2353157,53.7294633 59.8663983,54.0821525 L59.6625385,54.2924902 L59.5363409,54.7358141 C59.1900966,56.0754944 59.1803878,56.7938785 58.9506408,57.8519874 C58.6917673,59.033113 58.2160864,60.1139199 56.9088129,61.7512425 L56.8246811,61.8450831 L56.5269725,62.1395527 L56.4428407,62.3887173 C56.2195634,63.3335846 56.5302115,64.5729463 56.2648683,66.0000223 C56.2454532,66.1068107 56.2163293,66.2006513 56.1872063,66.2815441 C55.8927367,67.0743429 54.7245921,68.4204599 53.8444225,69.329789 L53.4366948,69.7439865 L53.4366948,69.8151763 C53.4464019,70.1678903 53.4658178,70.6921152 53.4787615,71.2745597 C63.6265998,68.6243585 73.2757444,61.2725189 77.0035218,50.7527312 L77.0039442,50.7528952 Z M74.6611604,21.888301 C72.4122338,23.868662 69.8428839,27.4088079 71.0272402,29.3146962 C71.4187894,29.9457012 72.1145086,30.5669808 72.9525958,31.2853649 C73.6547931,31.8872436 74.654699,32.7189024 75.1724458,33.5731433 C75.7710937,34.5697853 75.635179,35.7638338 75.5348686,36.4951409 C75.4766217,36.9416955 75.4183797,37.2685222 75.3924841,37.5953323 C75.3665967,37.9189199 75.3860127,38.0936615 75.4151357,38.1875021 C75.5025065,38.4528453 75.7096053,38.7570237 76.0882066,39.1226772 C76.466808,39.488339 76.9230631,39.837814 77.4440407,40.2487973 C77.6899746,40.4397175 77.9812051,40.6629948 78.2788971,40.9251072 C78.2077073,34.2526343 76.7742005,26.7645237 74.6611306,21.8885909 L74.6611604,21.888301 Z M33.3350207,38.1322979 L33.3156048,37.8831332 C32.7719706,35.9966294 29.0603883,35.0711465 28.0087409,33.0519338 C27.0314834,31.094188 29.1024708,26.3147632 31.7429798,26.3989281 C32.0050922,26.4086361 32.241309,26.4733536 32.4484078,26.5671917 C32.9370283,26.78723 33.3188852,27.1755484 33.6521485,27.6123776 L34.1278295,28.2886876 L34.2054915,28.146303 C34.6747027,27.2272817 35.2345237,25.9717663 35.8008145,24.7194816 C36.4318195,23.3280266 37.2763516,21.4609071 37.8750327,20.8525339 L37.9073914,20.8169394 L37.9721098,20.7619282 L38.0141765,20.7230972 C39.2017636,19.7426089 41.0818059,19.3477958 42.4829532,19.0501535 C44.045886,18.7168571 44.7384242,18.5097584 45.0458415,18.3544343 L45.1590997,18.2767723 L45.0587893,18.131157 C44.5669298,17.6392975 42.9813404,16.8367899 43.1690547,15.0408296 C43.1819992,14.9081538 43.224066,14.7754864 43.2855519,14.6589892 C43.8324252,13.6428799 44.7837871,13.2707649 45.6024898,13.0992872 C46.3176266,12.9504329 47.2334338,12.911606 47.9064219,12.8080566 C49.0130747,12.636554 49.9062502,12.3647328 49.9094809,10.1416189 C49.9127175,8.3295049 46.6670602,5.39773227 45.6801104,6.01579776 C45.5798001,6.0772804 45.3112179,6.28761072 45.1170586,6.42999524 C45.0782276,6.45588259 44.8776028,6.61120664 44.7708144,6.68239891 L44.7028603,6.71475767 L44.6251983,6.85066415 C44.5766593,6.94450473 44.5313577,7.05129313 44.5119401,7.11924636 C44.3177809,7.72760306 43.2790399,9.97977703 43.000782,10.4910624 C41.3148326,13.5619225 38.7099446,13.5716976 36.9172151,12.1057699 C35.4351336,10.8923369 34.2443159,8.31006413 35.5646118,6.37493349 C36.0597103,5.64684886 37.0434625,4.30394607 37.7067583,3.30730408 C37.1987203,3.38172957 36.7068856,3.4690979 36.2376827,3.56941653 C29.8693964,4.9641023 24.6915136,6.60473853 19.3268278,12.209576 C19.9901899,13.6171848 19.7248468,14.9277056 19.161795,16.0991389 C18.6731745,17.1087867 18.0324441,17.9371817 17.5146973,18.846428 L17.0649036,19.7492128 L17.0390163,19.9821989 C16.9807694,20.8170554 17.0325441,23.1178396 17.3399556,25.5544805 C17.5114582,26.9070838 17.7509141,28.2176047 18.0583315,29.2466369 C18.3172049,30.1041914 18.5663695,30.5603885 18.7249326,30.7642565 L18.7961232,30.8354471 L18.8996726,30.7933795 L18.9352671,30.757785 C18.9643901,30.7221897 19.0064577,30.6704142 19.0776516,30.5798127 C19.2265059,30.3953622 19.4303656,30.2659255 19.6633517,30.2173899 C21.1680483,29.8840934 22.659822,30.9357657 23.5982278,31.7350095 C24.6304907,32.6151791 25.5235834,33.673288 25.8374622,34.0130956 C26.0251434,34.2040158 26.8794174,34.5987957 28.1899382,35.1165177 C29.3095969,35.5566025 30.7042826,36.0776216 31.4809029,36.5726704 C31.9630537,36.8833185 32.6491055,37.5984719 32.9435171,37.8476531 C33.0697148,37.9544415 33.1765032,38.0321035 33.263874,38.090348 L33.3350207,38.1322979 Z M43.2658196,35.8671347 C40.9359587,35.2879043 38.2145156,33.7767628 37.5414447,31.6993139 C37.4314255,31.3595394 37.5058494,31.0035947 37.7097082,30.7415237 L37.8067878,30.6412133 L37.7873728,30.5344249 C37.7711934,30.2690817 37.8553268,29.9972605 38.0462462,29.783692 C38.408669,29.3727335 38.8649324,29.2918325 39.1432068,29.2788846 C39.2920611,29.2724132 39.4667944,29.2853569 39.5056296,29.2853569 C39.8745222,29.265941 40.2240054,29.440681 40.424651,29.74809 C40.6705849,30.1202216 41.1106697,30.3855648 41.8678807,30.5473586 C42.6347922,30.7156222 43.5343628,30.7382788 44.5343184,30.7641662 C45.4371032,30.7900535 46.5373774,30.8224123 47.4175471,31.0748143 C48.3656451,31.3498663 49.2878973,31.9582147 49.5403092,33.1943456 C49.572668,33.3593785 49.5661965,33.5308811 49.5176576,33.6926749 C49.1261084,35.0194323 48.0615049,35.7280414 46.9095389,36.0031513 C45.7866495,36.2717335 44.4825901,36.1681842 43.2659264,35.8672449 L43.2658196,35.8671347 Z M46.4305369,33.990323 C46.9191573,33.8738341 47.2233357,33.6764359 47.4045637,33.3949142 L47.352789,33.3075433 C47.2654182,33.2298813 47.1133331,33.1425105 46.8415119,33.0648485 C46.2914079,32.9062854 45.5374525,32.8674585 44.4760301,32.8351014 C43.5376242,32.8092141 42.4211963,32.7865624 41.4310158,32.572989 C41.1786122,32.5179786 40.9262085,32.450022 40.6738131,32.3626512 L40.4764232,32.2849892 L40.6802829,32.446783 C41.4633729,33.029244 42.5506331,33.5566666 43.7641488,33.8576224 C44.7931811,34.1132568 45.7380484,34.155331 46.4305866,33.9902982 L46.4305369,33.990323 Z" id="Shape"></path>
            </g>
        </g>
    </g>
</svg>