<?xml version="1.0" encoding="UTF-8"?>
<svg width="124px" height="21px" viewBox="0 0 124 21" version="1.1" xmlns="http://www.w3.org/2000/svg" xmlns:xlink="http://www.w3.org/1999/xlink">
    <!-- Generator: Sketch 44.1 (41455) - http://www.bohemiancoding.com/sketch -->
    <title>ico-hmpg-stars@3x</title>
    <desc>Created with Sketch.</desc>
    <defs></defs>
    <g id="Desktop" stroke="none" stroke-width="1" fill="none" fill-rule="evenodd">
        <g id="01-Homepage-Concept" transform="translate(-698.000000, -1101.000000)">
            <g id="3-Talking-Points" transform="translate(70.000000, 800.000000)">
                <g id="Group-2" transform="translate(71.000000, 242.000000)">
                    <g id="ico-hmpg-stars" transform="translate(557.000000, 59.000000)">
                        <path d="M35.9953851,0.124574082 C35.9044834,0.196961724 35.8186318,0.2760831 35.7462471,0.373722245 L33.280118,7.31788558 L25.8951975,7.31788558 C25.7571616,7.32461932 25.6325926,7.36502172 25.5147571,7.44245966 C25.4087052,7.5148473 25.3245369,7.60070242 25.2656192,7.70002499 C25.2454188,7.85826775 25.2454188,8.0013596 25.2656192,8.14108458 C25.3245369,8.26565866 25.4087052,8.37003154 25.5147571,8.45588665 L31.1961126,12.8748997 L29.1777585,19.8847169 C29.1575581,20.009291 29.1575581,20.1338651 29.1777585,20.2601226 C29.2434097,20.3914304 29.3292613,20.4958033 29.4336299,20.5749247 C29.5329484,20.6540461 29.637317,20.6994988 29.7501024,20.6994988 C29.9066553,20.7062325 30.0329077,20.6675135 30.1238094,20.5749247 L36.3118576,16.5969712 L42.4999059,20.5749247 C42.6379418,20.6675135 42.7625107,20.7062325 42.8736128,20.6994988 C43.0251156,20.6994988 43.1496846,20.6540461 43.2557366,20.5749247 C43.3617885,20.4958033 43.4274398,20.3914304 43.4459568,20.2601226 C43.5048745,20.1338651 43.5048745,20.009291 43.4459568,19.8847169 L41.4276026,12.8748997 L47.1678759,8.45588665 C47.2739278,8.37676528 47.3395791,8.2723924 47.3580961,8.14108458 C47.4254307,8.01482707 47.4254307,7.89025298 47.3580961,7.75894517 C47.3395791,7.63437109 47.2739278,7.52831477 47.1678759,7.44245966 C47.0567738,7.36502172 46.9322048,7.32461932 46.7941689,7.31788558 L39.402515,7.31788558 L36.9431193,0.373722245 C36.922919,0.2760831 36.8572677,0.196961724 36.7528991,0.124574082 C36.6401137,0.0454527055 36.5155447,0 36.3775088,0 C36.2462064,0 36.1216374,0.0387189713 35.9953851,0.124574082 L35.9953851,0.124574082 Z M10.7449162,0.124574082 C10.6540145,0.196961724 10.5681629,0.2760831 10.4957782,0.373722245 L8.0296491,7.31788558 L0.644728639,7.31788558 C0.506692742,7.32461932 0.382123762,7.36502172 0.264288241,7.44245966 C0.158236272,7.5148473 0.0740680421,7.60070242 0.0151502813,7.70002499 C-0.00505009378,7.85826775 -0.00505009378,8.0013596 0.0151502813,8.14108458 C0.0740680421,8.26565866 0.158236272,8.37003154 0.264288241,8.45588665 L5.94564374,12.8748997 L3.92728959,19.8847169 C3.90708922,20.009291 3.90708922,20.1338651 3.92728959,20.2601226 C3.99294081,20.3914304 4.07879241,20.4958033 4.18316101,20.5749247 C4.28247952,20.6540461 4.38684813,20.6994988 4.49963356,20.6994988 C4.65618646,20.7062325 4.78243881,20.6675135 4.87334049,20.5749247 L11.0613887,16.5969712 L17.249437,20.5749247 C17.3874729,20.6675135 17.5120419,20.7062325 17.6231439,20.6994988 C17.7746467,20.6994988 17.8992157,20.6540461 18.0052677,20.5749247 C18.1113196,20.4958033 18.1769709,20.3914304 18.1954879,20.2601226 C18.2544056,20.1338651 18.2544056,20.009291 18.1954879,19.8847169 L16.1771337,12.8748997 L21.917407,8.45588665 C22.023459,8.37676528 22.0891102,8.2723924 22.1076272,8.14108458 C22.1749618,8.01482707 22.1749618,7.89025298 22.1076272,7.75894517 C22.0891102,7.63437109 22.023459,7.52831477 21.917407,7.44245966 C21.8063049,7.36502172 21.6817359,7.32461932 21.5437001,7.31788558 L14.1520461,7.31788558 L11.6926505,0.373722245 C11.6724501,0.2760831 11.6067989,0.196961724 11.5024303,0.124574082 C11.3896448,0.0454527055 11.2650759,0 11.12704,0 C10.9957375,0 10.8711685,0.0387189713 10.7449162,0.124574082 L10.7449162,0.124574082 Z M86.4963228,0.124574082 C86.4054212,0.196961724 86.3195696,0.2760831 86.2471849,0.373722245 L83.7810558,7.31788558 L76.3961353,7.31788558 C76.2580994,7.32461932 76.1335304,7.36502172 76.0156949,7.44245966 C75.9096429,7.5148473 75.8254747,7.60070242 75.7665569,7.70002499 C75.7463566,7.85826775 75.7463566,8.0013596 75.7665569,8.14108458 C75.8254747,8.26565866 75.9096429,8.37003154 76.0156949,8.45588665 L81.6970504,12.8748997 L79.6786962,19.8847169 C79.6584959,20.009291 79.6584959,20.1338651 79.6786962,20.2601226 C79.7443475,20.3914304 79.8301991,20.4958033 79.9345677,20.5749247 C80.0338862,20.6540461 80.1382548,20.6994988 80.2510402,20.6994988 C80.4075931,20.7062325 80.5338455,20.6675135 80.6247471,20.5749247 L86.8127954,16.5969712 L93.0008436,20.5749247 C93.1388795,20.6675135 93.2634485,20.7062325 93.3745506,20.6994988 C93.5260534,20.6994988 93.6506224,20.6540461 93.7566743,20.5749247 C93.8627263,20.4958033 93.9283775,20.3914304 93.9468945,20.2601226 C94.0058123,20.1338651 94.0058123,20.009291 93.9468945,19.8847169 L91.9285404,12.8748997 L97.6688136,8.45588665 C97.7748656,8.37676528 97.8405168,8.2723924 97.8590338,8.14108458 C97.9263684,8.01482707 97.9263684,7.89025298 97.8590338,7.75894517 C97.8405168,7.63437109 97.7748656,7.52831477 97.6688136,7.44245966 C97.5577116,7.36502172 97.4331426,7.32461932 97.2951067,7.31788558 L89.9034528,7.31788558 L87.4440571,0.373722245 C87.4238567,0.2760831 87.3582055,0.196961724 87.2538369,0.124574082 C87.1410515,0.0454527055 87.0164825,0 86.8784466,0 C86.7471442,0 86.6225752,0.0387189713 86.4963228,0.124574082 L86.4963228,0.124574082 Z M61.245854,0.124574082 C61.1549523,0.196961724 61.0691007,0.2760831 60.996716,0.373722245 L58.5305869,7.31788558 L51.1456664,7.31788558 C51.0076305,7.32461932 50.8830615,7.36502172 50.765226,7.44245966 C50.659174,7.5148473 50.5750058,7.60070242 50.516088,7.70002499 C50.4958877,7.85826775 50.4958877,8.0013596 50.516088,8.14108458 C50.5750058,8.26565866 50.659174,8.37003154 50.765226,8.45588665 L56.4465815,12.8748997 L54.4282274,19.8847169 C54.408027,20.009291 54.408027,20.1338651 54.4282274,20.2601226 C54.4938786,20.3914304 54.5797302,20.4958033 54.6840988,20.5749247 C54.7834173,20.6540461 54.8877859,20.6994988 55.0005713,20.6994988 C55.1571242,20.7062325 55.2833766,20.6675135 55.3742783,20.5749247 L61.5623265,16.5969712 L67.7503747,20.5749247 C67.8884106,20.6675135 68.0129796,20.7062325 68.1240817,20.6994988 C68.2755845,20.6994988 68.4001535,20.6540461 68.5062054,20.5749247 C68.6122574,20.4958033 68.6779086,20.3914304 68.6964256,20.2601226 C68.7553434,20.1338651 68.7553434,20.009291 68.6964256,19.8847169 L66.6780715,12.8748997 L72.4183448,8.45588665 C72.5243967,8.37676528 72.5900479,8.2723924 72.608565,8.14108458 C72.6758995,8.01482707 72.6758995,7.89025298 72.608565,7.75894517 C72.5900479,7.63437109 72.5243967,7.52831477 72.4183448,7.44245966 C72.3072427,7.36502172 72.1826737,7.32461932 72.0446378,7.31788558 L64.6529839,7.31788558 L62.1935882,0.373722245 C62.1733878,0.2760831 62.1077366,0.196961724 62.003368,0.124574082 C61.8905826,0.0454527055 61.7660136,0 61.6279777,0 C61.4966753,0 61.3721063,0.0387189713 61.245854,0.124574082 L61.245854,0.124574082 Z" id="Page-1" fill="#29B5A8"></path>
                        <path d="M111.746792,0.124574082 C111.65589,0.196961724 111.570038,0.2760831 111.497654,0.373722245 L109.031525,7.31788558 L101.646604,7.31788558 C101.508568,7.32461932 101.383999,7.36502172 101.266164,7.44245966 C101.160112,7.5148473 101.075944,7.60070242 101.017026,7.70002499 C100.996825,7.85826775 100.996825,8.0013596 101.017026,8.14108458 C101.075944,8.26565866 101.160112,8.37003154 101.266164,8.45588665 L106.947519,12.8748997 L104.929165,19.8847169 C104.908965,20.009291 104.908965,20.1338651 104.929165,20.2601226 C104.994816,20.3914304 105.080668,20.4958033 105.185037,20.5749247 C105.284355,20.6540461 105.388724,20.6994988 105.501509,20.6994988 C105.658062,20.7062325 105.784314,20.6675135 105.875216,20.5749247 L112.063264,16.5969712 L118.251313,20.5749247 C118.389348,20.6675135 118.513917,20.7062325 118.625019,20.6994988 C118.776522,20.6994988 118.901091,20.6540461 119.007143,20.5749247 C119.113195,20.4958033 119.178846,20.3914304 119.197363,20.2601226 C119.256281,20.1338651 119.256281,20.009291 119.197363,19.8847169 L117.179009,12.8748997 L122.919283,8.45588665 C123.025334,8.37676528 123.090986,8.2723924 123.109503,8.14108458 C123.176837,8.01482707 123.176837,7.89025298 123.109503,7.75894517 C123.090986,7.63437109 123.025334,7.52831477 122.919283,7.44245966 C122.80818,7.36502172 122.683611,7.32461932 122.545576,7.31788558 L115.153922,7.31788558 L112.694526,0.373722245 C112.674326,0.2760831 112.608674,0.196961724 112.504306,0.124574082 C112.39152,0.0454527055 112.266951,0 112.128915,0 C111.997613,0 111.873044,0.0387189713 111.746792,0.124574082 L111.746792,0.124574082 Z" id="Path" fill="#CDCDCD"></path>
                    </g>
                </g>
            </g>
        </g>
    </g>
</svg>