<?xml version="1.0" encoding="UTF-8"?>
<svg width="25px" height="14px" viewBox="0 0 25 14" version="1.1" xmlns="http://www.w3.org/2000/svg" xmlns:xlink="http://www.w3.org/1999/xlink">
    <!-- Generator: Sketch 44.1 (41455) - http://www.bohemiancoding.com/sketch -->
    <title>ico-carrot-dropdown@3x</title>
    <desc>Created with Sketch.</desc>
    <defs></defs>
    <g id="Desktop" stroke="none" stroke-width="1" fill="none" fill-rule="evenodd">
        <g id="07-Blog-Landing" transform="translate(-342.000000, -634.000000)" fill="#ffffff">
            <g id="Group-3" transform="translate(131.000000, 632.000000)">
                <path d="M223.5,13.0857864 L213.207107,2.79289322 L212.5,2.08578644 L211.085786,3.5 L211.792893,4.20710678 L222.399495,14.8137085 L223.106602,15.5208153 L223.5,15.127417 L223.893398,15.5208153 L224.600505,14.8137085 L235.207107,4.20710678 L235.914214,3.5 L234.5,2.08578644 L233.792893,2.79289322 L223.5,13.0857864 Z" id="ico-carrot-dropdown"></path>
            </g>
        </g>
    </g>
</svg>
