<?xml version="1.0" standalone="no"?>
<!DOCTYPE svg PUBLIC "-//W3C//DTD SVG 1.1//EN" "http://www.w3.org/Graphics/SVG/1.1/DTD/svg11.dtd" >
<svg xmlns="http://www.w3.org/2000/svg">
<metadata>Generated by IcoMoon</metadata>
<defs>
<font id="icomoon" horiz-adv-x="1024">
<font-face units-per-em="1024" ascent="960" descent="-64" />
<missing-glyph horiz-adv-x="1024" />
<glyph unicode="&#x20;" horiz-adv-x="512" d="" />
<glyph unicode="&#xe900;" glyph-name="at" d="M955.008 192c43.872 75.36 68.992 162.496 68.992 256 0 282.752-229.248 512-512 512s-512-229.248-512-512 229.248-512 512-512c141.376 0 269.376 57.248 361.984 150.016l-90.624 90.624c-69.472-69.632-165.472-112.64-271.36-112.64-211.744 0-384 172.256-384 384s172.256 384 384 384 384-172.256 384-384c0-45.504-8.736-88.992-23.36-129.504l-1.024 1.504h-103.616v382.624h-256c-141.376 0-256-114.624-256-256s114.624-256 256-256c58.752 0 112.256 20.64 155.488 53.888 23.264-31.008 58.752-52.512 100.512-52.512h187.008zM640 511.744v-65.12c0-70.624-57.504-128-128-128s-128 57.376-128 128 57.504 128 128 128h128v-62.88z" />
<glyph unicode="&#xe901;" glyph-name="envelope" d="M928 832h-832c-53.024 0-96-42.976-96-96v-576c0-52.992 42.976-96 96-96h832c53.024 0 96 43.008 96 96v576c0 53.024-42.976 96-96 96zM87.712 128.32l-23.392 23.424 263.968 263.936 23.392-23.424-263.968-263.936zM936.288 128.32l-263.968 263.936 23.392 23.424 263.968-263.936-23.392-23.424zM544 341.6v-21.6h-64v21.6l-415.904 385.6 40.704 40.704 407.2-377.536 407.2 377.536 40.704-40.704-415.904-385.6z" />
<glyph unicode="&#xe902;" glyph-name="linkedin" d="M384 576h177.106v-90.782h2.532c24.64 44.194 84.958 90.782 174.842 90.782 186.946 0 221.52-116.376 221.52-267.734v-308.266h-184.61v273.278c0 65.184-1.334 149.026-96.028 149.026-96.148 0-110.82-70.986-110.82-144.292v-278.012h-184.542v576zM64 576h192v-576h-192v576zM256 736c0-53.019-42.981-96-96-96s-96 42.981-96 96c0 53.019 42.981 96 96 96s96-42.981 96-96z" />
<glyph unicode="&#xe903;" glyph-name="twitter" d="M1024 733.6c-37.6-16.8-78.2-28-120.6-33 43.4 26 76.6 67.2 92.4 116.2-40.6-24-85.6-41.6-133.4-51-38.4 40.8-93 66.2-153.4 66.2-116 0-210-94-210-210 0-16.4 1.8-32.4 5.4-47.8-174.6 8.8-329.4 92.4-433 219.6-18-31-28.4-67.2-28.4-105.6 0-72.8 37-137.2 93.4-174.8-34.4 1-66.8 10.6-95.2 26.2 0-0.8 0-1.8 0-2.6 0-101.8 72.4-186.8 168.6-206-17.6-4.8-36.2-7.4-55.4-7.4-13.6 0-26.6 1.4-39.6 3.8 26.8-83.4 104.4-144.2 196.2-146-72-56.4-162.4-90-261-90-17 0-33.6 1-50.2 3 93.2-59.8 203.6-94.4 322.2-94.4 386.4 0 597.8 320.2 597.8 597.8 0 9.2-0.2 18.2-0.6 27.2 41 29.4 76.6 66.4 104.8 108.6z" />
<glyph unicode="&#xe904;" glyph-name="facebook" d="M608 768h160v192h-160c-123.514 0-224-100.486-224-224v-96h-128v-192h128v-512h192v512h160l32 192h-192v96c0 17.346 14.654 32 32 32z" />
<glyph unicode="&#xe905;" glyph-name="send" horiz-adv-x="1025" d="M1008 944.571c12-8.571 17.714-22.286 15.429-36.571l-146.286-877.714c-1.714-10.857-8.571-20-18.286-25.714-5.143-2.857-11.429-4.571-17.714-4.571-4.571 0-9.143 1.143-13.714 2.857l-258.857 105.714-138.286-168.571c-6.857-8.571-17.143-13.143-28-13.143-4 0-8.571 0.571-12.571 2.286-14.286 5.143-24 18.857-24 34.286v199.429l493.714 605.143-610.857-528.571-225.714 92.571c-13.143 5.143-21.714 17.143-22.857 31.429-0.571 13.714 6.286 26.857 18.286 33.714l950.857 548.571c5.714 3.429 12 5.143 18.286 5.143 7.429 0 14.857-2.286 20.571-6.286z" />
<glyph unicode="&#xe906;" glyph-name="pinterest" horiz-adv-x="731" d="M0 609.714c0 210.857 193.143 341.143 388.571 341.143 179.429 0 342.857-123.429 342.857-312.571 0-177.714-90.857-374.857-293.143-374.857-48 0-108.571 24-132 68.571-43.429-172-40-197.714-136-329.143l-8-2.857-5.143 5.714c-3.429 36-8.571 71.429-8.571 107.429 0 116.571 53.714 285.143 80 398.286-14.286 29.143-18.286 64.571-18.286 96.571 0 57.714 40 130.857 105.143 130.857 48 0 73.714-36.571 73.714-81.714 0-74.286-50.286-144-50.286-216 0-49.143 40.571-83.429 88-83.429 131.429 0 172 189.714 172 290.857 0 135.429-96 209.143-225.714 209.143-150.857 0-267.429-108.571-267.429-261.714 0-73.714 45.143-111.429 45.143-129.143 0-14.857-10.857-67.429-29.714-67.429-2.857 0-6.857 1.143-9.714 1.714-81.714 24.571-111.429 133.714-111.429 208.571z" />
<glyph unicode="&#xe907;" glyph-name="reddit" d="M94.037 360.576c-2.56-11.776-3.883-23.893-3.883-36.139 0-146.901 187.819-266.624 418.731-266.624 230.827 0 418.645 119.637 418.645 266.624 0 11.691-1.237 23.296-3.499 34.517l-0.64 1.365c-0.896 2.347-1.237 4.693-1.237 7.040-12.885 50.133-47.659 95.616-97.963 132.395-1.92 0.683-3.755 1.664-5.376 2.987-1.109 0.853-1.92 1.792-2.859 2.731-76.459 52.651-185.856 85.675-307.029 85.675-120.107 0-228.437-32.384-304.896-84.096-0.597-0.768-1.237-1.408-2.091-2.091-1.664-1.408-3.584-2.56-5.547-3.2-51.456-36.779-87.125-82.645-100.437-133.248 0-2.475-0.597-4.864-1.579-7.296l-0.341-0.64zM511.019 128.427c-76.544 0-130.432 16.597-164.821 51.072-7.381 7.424-7.381 19.499 0 26.965 7.509 7.040 19.627 7.040 27.093 0 26.88-26.837 71.893-40.235 137.728-40.235 65.792 0 110.549 12.8 137.344 39.637 7.040 6.997 19.2 6.997 26.837 0 7.040-7.68 7.040-19.84 0-27.52-34.517-34.475-88.107-51.115-164.779-51.115l0.597 1.195zM357.163 451.541c-38.997 0-71.552-32.64-71.552-71.552 0-38.827 32.555-70.4 71.552-70.4s70.443 31.573 70.443 70.4c0 38.912-31.531 71.552-70.443 71.552zM665.771 451.541c-38.997 0-71.595-32.64-71.595-71.552 0-38.827 32.597-70.4 71.595-70.4s70.443 31.573 70.443 70.4c0 38.912-31.531 71.552-70.443 71.552zM859.819 519.595c44.245-35.541 76.8-77.696 93.397-123.904 19.2 14.336 30.677 36.864 30.677 61.824 0 42.752-34.773 77.483-77.568 77.483-17.024 0-33.195-5.504-46.507-15.488v0.085zM115.669 534.912c-42.795 0-77.525-34.816-77.525-77.568 0-23.168 10.197-44.715 27.477-59.264 17.109 46.037 50.005 87.595 94.421 122.709-12.885 8.96-28.288 14.037-44.331 14.037v0.085zM508.928 19.541c-251.989 0-456.917 136.747-456.917 304.725 0 11.733 0.981 23.211 2.901 34.517-33.835 21.035-54.912 58.112-54.912 98.731 0 63.829 52.352 115.755 116.267 115.755 28.757 0 55.595-10.496 76.672-29.099 79.189 50.816 185.899 82.816 303.445 84.992l77.312 235.691 17.237-4.053s0.683 0 0.683-0.085l180.181-42.368c14.677 34.048 48.555 58.027 88.107 58.027 52.437 0 95.189-42.837 95.189-95.317 0-52.565-42.795-95.317-95.189-95.317s-95.147 42.837-95.147 95.147l-164.309 38.912-62.592-191.019c113.067-4.48 215.339-36.437 292.011-86.229 21.077 19.797 48.811 30.677 78.208 30.677 63.915 0 115.968-51.755 115.968-115.669 0-42.112-23.040-80.469-58.795-100.907 1.237-10.88 2.517-21.077 2.517-31.957-0.64-168.021-205.056-304.768-457.387-304.768l-1.451-0.384zM857.899 838.187c-31.573 0-57.173-25.557-57.173-57.088 0-31.488 25.6-57.173 57.173-57.173 31.232 0 56.747 25.6 56.747 56.917 0 31.275-25.515 56.832-57.472 56.832l0.725 0.512z" />
<glyph unicode="&#xe908;" glyph-name="close" d="M810 664.667l-238-238 238-238-60-60-238 238-238-238-60 60 238 238-238 238 60 60 238-238 238 238z" />
</font></defs></svg>