<?xml version="1.0" encoding="UTF-8"?>
<svg width="74px" height="90px" viewBox="0 0 74 90" version="1.1" xmlns="http://www.w3.org/2000/svg" xmlns:xlink="http://www.w3.org/1999/xlink">
    <title>Compliance + Mandates</title>
    <g id="Additional-Design-Needs" stroke="none" stroke-width="1" fill="none" fill-rule="evenodd" stroke-linecap="round" stroke-linejoin="round">
        <g id="Outline-Icons" transform="translate(-243.000000, -187.000000)" stroke="#28B3A6" stroke-width="3">
            <g id="Compliance-+-Mandates" transform="translate(245.000000, 189.000000)">
                <path d="M70,8.00075346 L70,86 L-4.8316906e-13,86 L-4.8316906e-13,8.00075346 L17.946,8 L17.9464582,10.0225017 C17.9464582,11.1623789 18.8697196,12.0869818 20.0103456,12.0869818 L49.9883632,12.0869818 C51.1289891,12.0869818 52.0533266,11.1623789 52.0533266,10.0225017 L52.053,8 L70,8.00075346 Z" id="Combined-Shape"></path>
                <polygon id="Stroke-29" points="9 77 60 77 60 20 9 20"></polygon>
                <polyline id="Stroke-30" points="30 47.543197 32.7494577 51 41 43"></polyline>
                <path d="M20.0574205,13 L49.9415068,13 C51.0785588,13 52,12.0444121 52,10.8663358 L52,5.98048947 C52,4.80241314 51.0785588,3.84682526 49.9415068,3.84682526 L46.5496593,3.84682526 L46.5496593,0 L23.2004038,0 L23.2004038,3.84682526 L20.0574205,3.84682526 C18.9203685,3.84682526 18,4.80241314 18,5.98048947 L18,10.8663358 C18,12.0444121 18.9203685,13 20.0574205,13 Z" id="Stroke-32"></path>
                <path d="M49,47.5005308 C49,54.9557627 42.9557627,61 35.4994692,61 C28.0442373,61 22,54.9557627 22,47.5005308 C22,40.045299 28.0442373,34 35.4994692,34 C42.9557627,34 49,40.045299 49,47.5005308 Z" id="Stroke-33"></path>
            </g>
        </g>
    </g>
</svg>