<?xml version="1.0" encoding="UTF-8"?>
<svg width="183px" height="108px" viewBox="0 0 183 108" version="1.1" xmlns="http://www.w3.org/2000/svg" xmlns:xlink="http://www.w3.org/1999/xlink">
    <title>Stars</title>
    <g id="Additional-Design-Needs" stroke="none" stroke-width="1" fill="none" fill-rule="evenodd">
        <g id="Outline-Icons-White" transform="translate(-284.000000, -184.000000)">
            <g id="Stars" transform="translate(286.000000, 186.000000)">
                <polygon id="Fill-34" fill="#FFFFFF" points="25.0335484 0 32.7696774 15.7461111 50.0670968 18.2719444 37.5503226 30.5277778 40.503871 47.8352778 25.0335484 39.6627778 9.56322581 47.8352778 12.5167742 30.5277778 -1.1001952e-13 18.2719444 17.2993548 15.7461111"></polygon>
                <polygon id="Stroke-35" stroke="#FFFFFF" stroke-width="3" stroke-linecap="round" stroke-linejoin="round" points="25.0335484 0 32.7696774 15.7461111 50.0670968 18.2719444 37.5503226 30.5277778 40.503871 47.8352778 25.0335484 39.6627778 9.56322581 47.8352778 12.5167742 30.5277778 -1.1001952e-13 18.2719444 17.2993548 15.7461111"></polygon>
                <polygon id="Fill-36" fill="#FFFFFF" points="89.2883226 0 97.0244516 15.7461111 114.321871 18.2719444 101.805097 30.5277778 104.758645 47.8352778 89.2883226 39.6627778 73.818 47.8352778 76.7715484 30.5277778 64.2547742 18.2719444 81.554129 15.7461111"></polygon>
                <polygon id="Stroke-37" stroke="#FFFFFF" stroke-width="3" stroke-linecap="round" stroke-linejoin="round" points="89.2883226 0 97.0244516 15.7461111 114.321871 18.2719444 101.805097 30.5277778 104.758645 47.8352778 89.2883226 39.6627778 73.818 47.8352778 76.7715484 30.5277778 64.2547742 18.2719444 81.554129 15.7461111"></polygon>
                <polygon id="Fill-38" fill="#FFFFFF" points="57.1618065 56.4345833 64.896 72.1806944 82.1934194 74.7045833 69.6785806 86.9623611 72.632129 104.269861 57.1618065 96.0973611 41.6914839 104.269861 44.6450323 86.9623611 32.1282581 74.7045833 49.4256774 72.1806944"></polygon>
                <polygon id="Stroke-39" stroke="#FFFFFF" stroke-width="3" stroke-linecap="round" stroke-linejoin="round" points="57.1618065 56.4345833 64.896 72.1806944 82.1934194 74.7045833 69.6785806 86.9623611 72.632129 104.269861 57.1618065 96.0973611 41.6914839 104.269861 44.6450323 86.9623611 32.1282581 74.7045833 49.4256774 72.1806944"></polygon>
                <polygon id="Fill-40" fill="#FFFFFF" points="121.416581 56.4345833 129.150774 72.1806944 146.448194 74.7045833 133.933355 86.9623611 136.886903 104.269861 121.416581 96.0973611 105.946258 104.269861 108.899806 86.9623611 96.3830323 74.7045833 113.680452 72.1806944"></polygon>
                <polygon id="Stroke-41" stroke="#FFFFFF" stroke-width="3" stroke-linecap="round" stroke-linejoin="round" points="121.416581 56.4345833 129.150774 72.1806944 146.448194 74.7045833 133.933355 86.9623611 136.886903 104.269861 121.416581 96.0973611 105.946258 104.269861 108.899806 86.9623611 96.3830323 74.7045833 113.680452 72.1806944"></polygon>
                <polygon id="Stroke-43" stroke="#FFFFFF" stroke-width="3" stroke-linecap="round" stroke-linejoin="round" points="153.542903 0 161.279032 15.7461111 178.576452 18.2719444 166.059677 30.5277778 169.013226 47.8352778 153.542903 39.6627778 138.072581 47.8352778 141.026129 30.5277778 128.509355 18.2719444 145.80871 15.7461111"></polygon>
            </g>
        </g>
    </g>
</svg>