<?xml version="1.0" encoding="UTF-8"?>
<svg width="50px" height="50px" viewBox="0 0 50 50" version="1.1" xmlns="http://www.w3.org/2000/svg" xmlns:xlink="http://www.w3.org/1999/xlink">
    <!-- Generator: Sketch 44.1 (41455) - http://www.bohemiancoding.com/sketch -->
    <title>ico-social-twitter@3x</title>
    <desc>Created with Sketch.</desc>
    <defs></defs>
    <g id="Symbols" stroke="none" stroke-width="1" fill="none" fill-rule="evenodd">
        <g id="Footer" transform="translate(-879.000000, -583.000000)" fill="#AEAFB0">
            <g transform="translate(0.000000, 381.000000)" id="social">
                <g transform="translate(879.000000, 202.000000)">
                    <path d="M24.6130031,49.2260062 C38.20639,49.2260062 49.2260062,38.20639 49.2260062,24.6130031 C49.2260062,11.0196162 38.20639,0 24.6130031,0 C11.0196162,0 0,11.0196162 0,24.6130031 C0,38.20639 11.0196162,49.2260062 24.6130031,49.2260062 Z M24.3001771,20.2361195 L24.3471275,21.0452017 L23.5646204,20.9461304 C20.7162946,20.5663571 18.2279221,19.2784304 16.1151529,17.115374 L15.0822435,16.0421018 L14.8161911,16.834672 C14.252786,18.6014433 14.6127392,20.4672859 15.7864999,21.7221888 C16.4125056,22.4156878 16.2716543,22.5147591 15.1917945,22.1019621 C14.8161911,21.969867 14.4875381,21.8707957 14.4562378,21.9203314 C14.3466869,22.0359145 14.7222903,23.5384956 15.0196429,24.1329234 C15.4265466,24.9585175 16.2560041,25.7675996 17.1637124,26.2464441 L17.9305693,26.6262174 L17.0228611,26.6427293 C16.1464531,26.6427293 16.1151529,26.6592412 16.2090537,27.0059906 C16.5220566,28.0792629 17.7584178,29.2185827 19.1356303,29.7139391 L20.105939,30.0606887 L19.2608314,30.5890688 C18.00882,31.3486153 16.5377067,31.7779243 15.0665933,31.810948 C14.3623369,31.8274599 13.7832817,31.8935074 13.7832817,31.9430431 C13.7832817,32.1081618 15.692599,33.0328272 16.8037591,33.3960886 C20.1372393,34.4693609 24.0967252,34.0070281 27.0702522,32.1742094 C29.1830214,30.8697708 31.2957906,28.2774055 32.2817495,25.7675996 C32.8138543,24.4301373 33.3459591,21.9863789 33.3459591,20.8140353 C33.3459591,20.0544888 33.3929096,19.9554175 34.2693175,19.0472641 C34.7857722,18.5188839 35.2709266,17.9409681 35.3648274,17.7758492 C35.5213288,17.4621235 35.5056788,17.4621235 34.7075215,17.7428255 C33.3772594,18.2381819 33.1894577,18.1721344 33.8467637,17.4290998 C34.3319181,16.9007195 34.9109733,15.9430305 34.9109733,15.6623285 C34.9109733,15.6127929 34.6762212,15.6953523 34.4101688,15.8439591 C34.1284662,16.009078 33.5024605,16.2567562 33.0329563,16.4053631 L32.1878486,16.6860651 L31.4209917,16.141173 C30.9984378,15.8439591 30.4037324,15.5137216 30.0907296,15.4146503 C29.2925723,15.183484 28.0718613,15.2165077 27.3519548,15.4806978 C25.395687,16.2237324 24.1593258,18.1391107 24.3001771,20.2361195 C24.3001771,20.2361195 24.1593258,18.1391107 24.3001771,20.2361195 L24.3001771,20.2361195 L24.3001771,20.2361195 Z" id="ico-social-twitter"></path>
                </g>
            </g>
        </g>
    </g>
</svg>