<svg xmlns="http://www.w3.org/2000/svg" width="100" height="93" viewBox="0 0 100 93">
    <g fill="none" fill-rule="evenodd" stroke="#FF8300" stroke-linejoin="round" stroke-width="3" transform="translate(2 2)">
        <path d="M33.993 37.667c.005.166.007.332.007.5 0 9.665-7.611 17.5-17 17.5s-17-7.835-17-17.5c0-.168.002-.334.007-.5zM95.993 38c.005.166.007.333.007.5C96 48.165 88.389 56 79 56s-17-7.835-17-17.5c0-.167.002-.334.007-.5z"/>
        <path stroke-linecap="round" d="M17 6L5 37.667 29 37.667zM79 6L67 37.667 91 37.667zM17 5L79 5"/>
        <circle cx="48" cy="5" r="5" fill="#FFF"/>
        <path stroke-linecap="round" d="M7 81H89V89H7zM48 11L48 80"/>
    </g>
</svg>
