<svg xmlns="http://www.w3.org/2000/svg" xmlns:xlink="http://www.w3.org/1999/xlink" width="219" height="197" viewBox="0 0 219 197">
    <defs>
        <rect id="prefix__a" width="217.568" height="196.598" x="0" y="0" rx="5"/>
    </defs>
    <g fill="none" fill-rule="evenodd">
        <mask id="prefix__b" fill="#fff">
            <use xlink:href="#prefix__a"/>
        </mask>
        <use fill="#29B5A8" xlink:href="#prefix__a"/>
        <path fill="#000" fill-opacity=".5" d="M-19.66 -14.212H255.57700000000003V62.76899999999999H-19.66z" mask="url(#prefix__b)"/>
        <text fill="#FFF" font-family="AvenirNext-DemiBold, Avenir Next" font-size="13.107" font-weight="500">
            <tspan x="18.349" y="89.097">Your Health Care</tspan>
        </text>
        <text fill="#FFF" font-family="AvenirNext-Regular, Avenir Next" font-size="13.107">
            <tspan x="18.349" y="105.977">1234 Main Street, </tspan> <tspan x="18.349" y="123.977">City, USA 97800</tspan>
        </text>
        <text fill="#FFF" font-family="AvenirNext-Regular, Avenir Next" font-size="13.107">
            <tspan x="157.278" y="27.765">0.3 MI</tspan>
        </text>
        <text fill="#FFF" font-family="AvenirNext-DemiBold, Avenir Next" font-size="13.107" font-weight="500">
            <tspan x="56.358" y="26.375">Chinn, Ashley,</tspan> <tspan x="56.358" y="44.724">MD</tspan>
        </text>
        <text fill="#FFF" font-family="AvenirNext-DemiBold, Avenir Next" font-size="13.107" font-weight="500">
            <tspan x="150.725" y="88.97">Quality</tspan>
        </text>
        <rect width="193.977" height="39.083" x="11.796" y="145.672" fill="#FFF" rx="5"/>
        <text fill="#29B5A8" font-family="AvenirNext-DemiBold, Avenir Next" font-size="15.728" font-weight="500">
            <tspan x="59.808" y="170.168">Select as PCP</tspan>
        </text>
        <g stroke="#FFF" stroke-linecap="round" stroke-linejoin="round" stroke-width="1.311">
            <path d="M3.932 0L5.147 2.339 7.864 2.716 5.898 4.536 6.362 7.106 3.932 5.892 1.502 7.106 1.966 4.536 0 2.716 2.717 2.339zM15.728 0L16.943 2.339 19.66 2.716 17.694 4.536 18.158 7.106 15.728 5.892 13.298 7.106 13.762 4.536 11.796 2.716 14.513 2.339zM27.524 0L28.739 2.339 31.456 2.716 29.49 4.536 29.954 7.106 27.524 5.892 25.094 7.106 25.558 4.536 23.592 2.716 26.309 2.339zM39.32 0L40.535 2.339 43.252 2.716 41.286 4.536 41.75 7.106 39.32 5.892 36.89 7.106 37.354 4.536 35.388 2.716 38.105 2.339z" transform="translate(150.725 36.714)"/>
        </g>
        <text fill="#FFF" font-family="AvenirNext-Regular, Avenir Next" font-size="13.107">
            <tspan x="175.365" y="106.735">5.0</tspan>
        </text>
        <path stroke="#FFF" stroke-linecap="square" stroke-width="1.311" d="M0.655 62.177L218.224 62.177"/>
        <g transform="translate(16 18)">
            <circle cx="14" cy="14" r="14" stroke="#FFF"/>
            <path fill="#FFF" fill-rule="nonzero" d="M19.249 7.322c0-2.936-2.363-5.322-5.27-5.322-2.908 0-5.27 2.386-5.27 5.322 0 1.66.797 3.85 2.075 5.357C3.052 15.304 3.863 22.527 4.202 24c4.242 2.863 7.424 4.294 9.545 4.294 2.224 0 5.56-1.431 10.009-4.294 1.153-5.045-1.9-9.939-6.583-11.32 1.278-1.508 2.076-3.699 2.076-5.358zm-1.167-1.98c-1.753 1.214-3.532-.157-3.532-.157-1.243-.736-2.803-.666-3.977.17l-1.063.757c.502-2.002 2.289-3.495 4.419-3.495 1.847 0 3.437 1.118 4.153 2.725zm-7.155.699c.958-.675 2.23-.727 3.238-.139 0 0 1.97 1.514 4.157.23.103.384.168.79.168 1.21 0 2.516-2.057 6.378-4.592 6.378-2.535 0-4.592-3.857-4.592-6.373 0-.057.004-.113.009-.17l1.612-1.136zm12.064 18.185c-2.244 2.93-5.325 4.341-9.244 4.232-3.919-.11-6.943-1.66-9.071-4.654-.53-3.341.868-6.972 3.35-8.906.15 1 .44 1.96.873 2.872-1.083.69-1.592 2.077-1.151 3.35l.582 1.676 1.322-.473-.231-.673-.663.234-.351-1.008c-.385-1.112.192-2.333 1.288-2.724 1.091-.39 2.298.196 2.683 1.308l.346 1.008-.663.235.231.673 1.322-.474-.581-1.68c-.505-1.46-2.067-2.238-3.505-1.765-.454-.956-.745-1.972-.86-3.028.779-.5 1.652-.882 2.597-1.12.766.708 1.656 1.16 2.627 1.16.972 0 1.862-.452 2.628-1.16 1.104.277 2.11.751 2.982 1.385-.205.947-.548 1.847-1.027 2.68-.12-.034-.244-.06-.376-.06-.775 0-1.404.639-1.404 1.425s.63 1.425 1.404 1.425c.774 0 1.403-.639 1.403-1.425 0-.395-.158-.752-.42-1.012.459-.804.801-1.656 1.028-2.555 2.263 1.977 3.462 5.657 2.96 8.828l-.08.226zm-4.093-5.469c0 .395-.322.72-.714.72-.392 0-.715-.32-.715-.72 0-.4.323-.72.715-.72.396 0 .714.325.714.72z"/>
        </g>
    </g>
</svg>
