<svg xmlns="http://www.w3.org/2000/svg" width="185" height="185" viewBox="0 0 185 185">
    <g fill="none" fill-rule="evenodd" stroke="#FFF" stroke-width="3" transform="translate(2 2)">
        <path stroke-linejoin="round" d="M91.5 81c17.397 0 31.5 23.505 31.5 52.5 0 .838-.012 1.672-.035 2.5h-62.93c-.023-.828-.035-1.662-.035-2.5C60 104.505 74.103 81 91.5 81zm.5-36c9.941 0 18 8.059 18 18s-8.059 18-18 18-18-8.059-18-18 8.059-18 18-18z"/>
        <circle cx="91" cy="90" r="81"/>
        <path stroke-linejoin="round" d="M24.443 0L0 0 0 24.061"/>
        <path stroke-linejoin="round" d="M24.443 157L0 157 0 181.061" transform="matrix(1 0 0 -1 0 338.061)"/>
        <path stroke-linejoin="round" d="M181.443 0L157 0 157 24.061" transform="matrix(-1 0 0 1 338.443 0)"/>
        <path stroke-linejoin="round" d="M181.443 157L157 157 157 181.061" transform="rotate(180 169.222 169.03)"/>
        <path stroke-linejoin="round" d="M79.843 85.3L91.815 95.7 103.843 85.3"/>
        <g stroke-linecap="round">
            <path d="M0 .489c.837 2.364 2.837 3.546 6 3.546M12 .489c-.837 2.364-2.837 3.546-6 3.546" transform="translate(86 69)"/>
        </g>
        <g stroke-linecap="round">
            <path d="M.5.5L.5 10.5M1 151L1 161" transform="translate(91 10)"/>
        </g>
        <g stroke-linecap="round">
            <path d="M1 151L1 161M.5 1L.5 11" transform="rotate(90 41.5 131.5)"/>
        </g>
        <g stroke-linecap="round">
            <path d="M1 1.461L1 11.461M1 150L1 160" transform="rotate(135 44.222 104.347)"/>
        </g>
        <g stroke-linecap="round">
            <path d="M.5.5L.5 10.5M1 151L1 161" transform="rotate(-135 48.571 67.153)"/>
        </g>
    </g>
</svg>
